 {
     "id": 1,
     "name": "Kudu",
     "description": "Enjoy fast delivery from Jahez. Order now, or schedule your order any time you want",
     "hours": "05:30 AM - 04:30 AM",
     "image": "https://jahez-other-oniiphi8.s3.eu-central-1.amazonaws.com/1.jpg",
     "rating": 8.0,
     "distance": 0.8866873944226332,
     "hasOffer": false
 }
